Name,Sex,BodyweightKg,WeightClassKg,Division,Best3SquatKg,Best3BenchKg,Best3DeadliftKg,TotalKg,Place,Event,Equipment,Tested
Jeff Adkins,M,82.15,82.5,M_OR_APF,,165,,165,1,B,Raw,
Josh Lentz,M,88.72,90,M_JR_APF,,185,,185,1,B,Raw,
Eric Wills,M,109.68,110,M_OR_APF,,220,,220,1,B,Raw,
Tom Strang,M,107.5,110,M_MR_5_APF,,150,,150,1,B,Raw,
Dan Douglas,M,118.66,125,M_OR_APF,,170,,170,1,B,Raw,
Dan Douglas,M,118.66,125,M_MR_1_APF,,170,,170,1,B,Raw,
Dru Patrick,M,148.05,140+,M_OR_APF,,242.5,,242.5,1,B,Raw,
Brandon Branner,M,145.15,140+,M_OR_APF,,255,,255,1,B,Raw,
John Tyler #3,M,96.62,100,M_MEM_2_AAPF,,160,,160,1,B,Multi-ply,Yes
Rachel Nutter,F,124.47,90+,F_OEM_AAPF,,187.5,,187.5,1,B,Multi-ply,Yes
Rachel Nutter,F,124.47,90+,F_SEM_AAPF,,187.5,,187.5,1,B,Multi-ply,Yes
Nathan Bratsch,M,96.43,100,M_OEM_AAPF,,240,,240,1,B,Multi-ply,Yes
Mike Anderson,M,107.86,110,M_MEM_4_AAPF,,177.5,,177.5,1,B,Multi-ply,Yes
Eric Knudsen,M,124.65,125,M_MEM_3_AAPF,,227.5,,227.5,1,B,Multi-ply,Yes
Dean Reiman,M,81.56,82.5,M_MEM_2_APF,,252.5,,252.5,1,B,Multi-ply,
Jason Nguyen,M,89.9,90,M_OEM_APF,,232.5,,232.5,1,B,Multi-ply,
Dale Schmidtke,M,99.06,100,M_MEM_1_APF,,215,,215,1,B,Multi-ply,
John Berding,M,105.05,110,M_MEM_1_APF,,327.5,,327.5,1,B,Multi-ply,
Jake Prazak,M,107.77,110,M_OEM_APF,,390,,390,1,B,Multi-ply,
Eric Wills,M,109.68,110,M_OEM_APF,,272.5,,272.5,2,B,Multi-ply,
Dave Harrison,M,119.2,125,M_MEM_1_APF,,262.5,,262.5,1,B,Multi-ply,
Dan Grauerholz,M,139.53,140,M_SEM_APF,,275,,275,1,B,Multi-ply,
Brandon Branner,M,145.15,140+,M_OEM_APF,,342.5,,342.5,1,B,Multi-ply,
Leah Brossart,F,59.69,60,F_OR_AAPF,97.5,52.5,137.5,287.5,1,SBD,Raw,Yes
Britt Ringstrom,F,73.66,75,F_OR_AAPF,135,85,150,370,1,SBD,Raw,Yes
Marie Berg,F,74.57,75,F_MR_1_AAPF,82.5,57.5,110,250,1,SBD,Raw,Yes
Kerry Barbetti,M,99.34,100,M_OR_AAPF,205,157.5,272.5,635,1,SBD,Raw,Yes
Kerry Barbetti,M,99.34,100,M_SR_AAPF,205,157.5,272.5,635,1,SBD,Raw,Yes
Kerry Barbetti,M,99.34,100,M_PFR_AAPF,205,157.5,272.5,635,1,SBD,Raw,Yes
Brian Graupman,M,97.61,100,M_MR_1_AAPF,200,125,230,555,1,SBD,Raw,Yes
Erlend Weise,M,106.23,110,M_OR_AAPF,200,150,265,615,1,SBD,Raw,Yes
Erlend Weise,M,106.23,110,M_OR_AAPF,,150,265,415,1,BD,Raw,Yes
Jeff Holmgren,M,115.94,125,M_OR_AAPF,217.5,162.5,265,645,1,SBD,Raw,Yes
Adam Ward,M,146.51,140+,M_JR_AAPF,295,182.5,295,772.5,1,SBD,Raw,Yes
Chris Bjork,M,157.67,140+,M_OR_AAPF,242.5,155,242.5,640,1,SBD,Raw,Yes
Jason Buccek,M,156.13,140+,M_OR_AAPF,,,300,300,1,D,Raw,Yes
Jason Buccek,M,156.13,140+,M_SR_AAPF,,,300,300,1,D,Raw,Yes
Erin Meiers,F,59.24,60,F_OR_APF,70,37.5,100,207.5,1,SBD,Raw,
Leah Brossart,F,59.69,60,F_OR_APF,97.5,52.5,137.5,287.5,1,SBD,Raw,
Kathy Leither,F,72.39,75,F_JR_APF,135,87.5,185,407.5,1,SBD,Raw,
Pamela Bosko,F,74.12,75,F_SR_APF,140,80,160,380,1,SBD,Raw,
Graeme Matthewson,M,81.74,82.5,M_JR_APF,205,100,205,510,1,SBD,Raw,
James Vordenbruggen,M,87.36,90,M_TR_2_APF,125,,,,DQ,SBD,Raw,
Michael Ross,M,97.79,100,M_OR_APF,227.5,187.5,327.5,742.5,1,SBD,Raw,
Kurt Paumen,M,105.69,110,M_OR_APF,,160,290,450,1,BD,Raw,
Mike Dempsey,M,101.15,110,M_MR_3_APF,,155,220,375,1,BD,Raw,
Matt Klemmer,M,107.95,110,M_TR_3_APF,172.5,147.5,230,550,1,SBD,Raw,
Dave Beakley,M,108.86,110,M_OR_APF,255,167.5,240,662.5,1,SBD,Raw,
Erlend Weise,M,106.23,110,M_OR_APF,200,150,265,615,2,SBD,Raw,
Cris Tillman,M,121.2,125,M_TR_3_APF,267.5,177.5,295,740,1,SBD,Raw,
Tim Lowmenn,M,124.74,125,M_OR_APF,255,195,295,745,1,SBD,Raw,
Tim Lowmenn,M,124.74,125,M_MR_3_APF,255,195,295,745,1,SBD,Raw,
Craig Meiers,M,119.39,125,M_OR_APF,252.5,180,270,702.5,2,SBD,Raw,
Paul Wiesbrod,M,139.34,140,M_JR_APF,265,155,307.5,727.5,1,SBD,Raw,
Paul Wiesbrod,M,139.34,140,M_OR_APF,265,155,307.5,727.5,1,SBD,Raw,
Dave Damminga,M,163.75,140+,M_OR_APF,320,182.5,320,822.5,1,SBD,Raw,
Kate Tobin,F,53.98,56,F_OEM_AAPF,137.5,75,155,367.5,1,SBD,Multi-ply,Yes
Joe Kuphal,M,80.47,82.5,M_SEM_AAPF,272.5,205,197.5,675,1,SBD,Multi-ply,Yes
Edward May,M,106.5,110,M_OEM_AAPF,227.5,145,200,572.5,1,SBD,Multi-ply,Yes
Edward May,M,106.5,110,M_MEM_3_AAPF,227.5,145,200,572.5,1,SBD,Multi-ply,Yes
Debbie Damminga,F,66.95,67.5,F_MEM_2_APF,200,107.5,192.5,500,1,SBD,Multi-ply,
Bret Mayo,M,74.48,75,M_OEM_APF,,140,165,305,1,BD,Multi-ply,
Bret Mayo,M,74.48,75,M_MEM_3_APF,,140,165,305,1,BD,Multi-ply,
Tony Owens,M,85.55,90,M_JEM_APF,270,170,225,665,1,SBD,Multi-ply,
Ben Tittle,M,89.18,90,M_OEM_APF,305,197.5,272.5,775,2,SBD,Multi-ply,
Cody Stanley,M,89.9,90,M_OEM_APF,320,260,287.5,867.5,1,SBD,Multi-ply,
Dave Nelson,M,93.8,100,M_JEM_APF,240,165,255,660,1,SBD,Multi-ply,
Paul Balyeat,M,99.25,100,M_OEM_APF,295,227.5,255,777.5,1,SBD,Multi-ply,
Joe Schroeder,M,94.98,100,M_OEM_APF,307.5,,,,DQ,SBD,Multi-ply,
Dwayne Warren,M,107.32,110,M_JEM_APF,365,257.5,285,907.5,1,SBD,Multi-ply,
Edward May,M,106.5,110,M_OEM_APF,227.5,145,200,572.5,1,SBD,Multi-ply,
Edward May,M,106.5,110,M_MEM_3_APF,227.5,145,200,572.5,1,SBD,Multi-ply,
Jeff Badker,M,105.91,110,M_OEM_APF,,240,250,490,1,BD,Multi-ply,
Marshall Johnson,M,122.65,125,M_OEM_APF,432.5,260,327.5,1020,2,SBD,Multi-ply,
Anthony Carlquist,M,119.2,125,M_OEM_APF,455,307.5,332.5,1095,1,SBD,Multi-ply,
Mario Ochua,M,115.39,125,M_SEM_APF,,,,,DQ,SBD,Multi-ply,
Ryan Goldstone,M,127.73,140,M_OEM_APF,375,290,,,DQ,SBD,Multi-ply,
Pete Stave,M,135.44,140,M_OEM_APF,,290,297.5,587.5,1,BD,Multi-ply,
Nicholas Boll,M,139.25,140,M_OEM_APF,417.5,240,270,927.5,1,SBD,Multi-ply,
