Division,WeightClassKg,Place,Name,Team,BodyweightKg,Best3SquatKg,Best3BenchKg,Best3DeadliftKg,TotalKg,Equipment,Event,Sex
Boys,51.71,1,Abraham Villareal,Belton,49.71,113.4,56.7,154.22,324.32,Single-ply,SBD,M
Boys,51.71,2,Ryan Dean,Waco Midway,51.71,115.67,74.84,133.81,324.32,Single-ply,SBD,M
Boys,51.71,3,Eliazar Venegas,Waco Midway,42.18,72.57,45.36,97.52,215.46,Single-ply,SBD,M
Boys,51.71,4,Garrett Cooper,Waco Midway,50.53,72.57,49.9,90.72,213.19,Single-ply,SBD,M
Boys,51.71,5,Heath Pickens,Waco Midway,44.91,38.56,29.48,61.23,129.27,Single-ply,SBD,M
Boys,55.79,1,Zaki Hill,Belton,52.44,117.93,61.23,122.47,301.64,Single-ply,SBD,M
Boys,55.79,2,Nick Hickman,Waco Midway,54.7,102.06,70.31,117.93,290.3,Single-ply,SBD,M
Boys,59.87,3,Julen Perez,Waco Midway,55.97,99.79,54.43,113.4,267.62,Single-ply,SBD,M
Boys,59.87,4,Ethan Blanton,Waco Midway,55.88,77.11,52.16,99.79,229.06,Single-ply,SBD,M
Boys,55.79,DQ,Paul Rocha,Waco Midway,54.98,92.99,,115.67,,Single-ply,SBD,M
Boys,55.79,DQ,Jacob Bishop,Belton,55.25,102.06,,108.86,,Single-ply,SBD,M
Boys,59.87,1,Isaiah Robinson,Waco Midway,58.33,167.83,90.72,181.44,439.98,Single-ply,SBD,M
Boys,59.87,2,Tye Ochoa,Temple,58.42,140.61,79.38,154.22,374.21,Single-ply,SBD,M
Boys,59.87,3,Quintin Cannon,Belton,58.88,136.08,86.18,147.42,369.68,Single-ply,SBD,M
Boys,59.87,4,Aaron Taylor,Copperas Cove,59.24,99.79,74.84,113.4,288.03,Single-ply,SBD,M
Boys,67.13,1,Reggie Davis,College Station A&M Cons,66.77,190.51,131.54,204.12,526.17,Single-ply,SBD,M
Boys,74.84,2,David Taylor,College Station A&M Cons,67.22,204.12,108.86,195.04,508.02,Single-ply,SBD,M
Boys,67.13,3,Xavier Moffitt,Belton,66.59,172.37,90.72,238.14,501.22,Single-ply,SBD,M
Boys,67.13,4,Treston Womack,Waco Midway,66.95,158.76,106.59,167.83,433.18,Single-ply,SBD,M
Boys,67.13,5,Bradley Schwartzengraber,Copperas Cove,66.22,149.69,104.33,154.22,408.23,Single-ply,SBD,M
Boys,67.13,6,Dorrell Whitney,Temple,66.13,136.08,97.52,136.08,369.68,Single-ply,SBD,M
Boys,67.13,7,Brian White #3,Belton,64.59,138.35,79.38,147.42,365.14,Single-ply,SBD,M
Boys,67.13,8,Brendan Hunt,Belton,65.32,149.69,70.31,142.88,362.87,Single-ply,SBD,M
Boys,67.13,9,Devin Wilson-Williams,Copperas Cove,66.13,122.47,83.91,138.35,344.73,Single-ply,SBD,M
Boys,67.13,10,Bernado De Alva,Waco Midway,64.5,129.27,70.31,136.08,335.66,Single-ply,SBD,M
Boys,67.13,11,Jacob Sosebee,Waco Midway,61.78,61.23,49.9,97.52,208.65,Single-ply,SBD,M
Boys,74.84,1,Harrell Henderson,Waco Midway,72.76,197.31,106.59,199.58,503.49,Single-ply,SBD,M
Boys,74.84,2,John Allen,Copperas Cove,70.31,165.56,104.33,167.83,437.72,Single-ply,SBD,M
Boys,74.84,3,Jonathan Sylvester,College Station A&M Cons,73.75,163.29,97.52,174.63,435.45,Single-ply,SBD,M
Boys,74.84,4,Jeremy Rowe,Waco Midway,72.67,136.08,115.67,170.1,421.84,Single-ply,SBD,M
Boys,74.84,5,Miguel Anderson,Waco Midway,69.76,149.69,106.59,163.29,419.57,Single-ply,SBD,M
Boys,74.84,6,Cairo Attaway,Waco Midway,73.07,133.81,108.86,172.37,415.04,Single-ply,SBD,M
Boys,74.84,7,Mason Hickson,College Station A&M Cons,73.3,151.95,79.38,179.17,410.5,Single-ply,SBD,M
Boys,74.84,8,Collin Mask,Belton,72.85,147.42,83.91,167.83,399.16,Single-ply,SBD,M
Boys,74.84,9,Carlton Shanks,Belton,68.67,142.88,81.65,165.56,390.09,Single-ply,SBD,M
Boys,74.84,10,Tonee Muldrew,Belton,72.12,124.74,77.11,154.22,356.07,Single-ply,SBD,M
Boys,74.84,11,Matthew O'Bryant,Waco Midway,74.48,115.67,79.38,133.81,328.85,Single-ply,SBD,M
Boys,74.84,DQ,Brett Hoskins,Waco Midway,70.76,86.18,,,,Single-ply,SBD,M
Boys,74.84,DQ,Justin Joe,Copperas Cove,74.21,161.03,,,,Single-ply,SBD,M
Boys,74.84,DQ,Antonio Leilee,Copperas Cove,74.48,147.42,,,,Single-ply,SBD,M
Boys,89.81,1,Korey Chatman,Waco Midway,82.19,217.72,142.88,226.8,587.4,Single-ply,SBD,M
Boys,82.1,2,Mike Sumrall,Copperas Cove,81.56,204.12,127.01,204.12,535.24,Single-ply,SBD,M
Boys,82.1,3,DJ Peapea,Copperas Cove,79.92,190.51,120.2,192.78,503.49,Single-ply,SBD,M
Boys,82.1,4,Daniel Taylor,College Station A&M Cons,75.21,190.51,111.13,181.44,483.08,Single-ply,SBD,M
Boys,82.1,5,Carlos Borbon,Temple,79.02,181.44,104.33,176.9,462.66,Single-ply,SBD,M
Boys,82.1,6,Joseph Warehime,Belton,78.47,174.63,108.86,176.9,460.4,Single-ply,SBD,M
Boys,82.1,7,Breyon Jackson,Copperas Cove,76.2,170.1,102.06,174.63,446.79,Single-ply,SBD,M
Boys,82.1,8,Eduardo Escobedo,Temple,78.83,170.1,92.99,183.7,446.79,Single-ply,SBD,M
Boys,82.1,9,Andy Owen,Waco Midway,77.02,158.76,106.59,176.9,442.25,Single-ply,SBD,M
Boys,82.1,10,Nick Robinson,Waco Midway,78.29,149.69,104.33,170.1,424.11,Single-ply,SBD,M
Boys,82.1,11,Jeremiah Leyba,Belton,82.1,158.76,90.72,154.22,403.7,Single-ply,SBD,M
Boys,82.1,12,Shamad Lomax,Copperas Cove,75.75,147.42,83.91,158.76,390.09,Single-ply,SBD,M
Boys,82.1,13,Michael Sulak,Waco Midway,78.93,136.08,99.79,149.69,385.55,Single-ply,SBD,M
Boys,82.1,14,Dylan Paine,Copperas Cove,79.47,136.08,83.91,154.22,374.21,Single-ply,SBD,M
Boys,82.1,15,Jason Jasperson,College Station A&M Cons,82.01,124.74,79.38,145.15,349.27,Single-ply,SBD,M
Boys,89.81,1,Michael Hicks,Temple,86,222.26,133.81,249.48,605.55,Single-ply,SBD,M
Boys,89.81,2,Floyd Shook,Waco Midway,87.54,181.44,124.74,201.85,508.02,Single-ply,SBD,M
Boys,89.81,3,Marques Hatcher,Temple,83.19,204.12,92.99,208.65,505.76,Single-ply,SBD,M
Boys,89.81,4,Zach Haverly,Waco Midway,89.27,165.56,104.33,197.31,467.2,Single-ply,SBD,M
Boys,89.81,5,Ryan Johnson #16,Belton,86.91,158.76,111.13,181.44,451.32,Single-ply,SBD,M
Boys,89.81,6,Cody Garrett,Belton,89.36,167.83,90.72,183.7,442.25,Single-ply,SBD,M
Boys,89.81,7,Quadreon Miller,Belton,83.55,158.76,97.52,167.83,424.11,Single-ply,SBD,M
Boys,89.81,8,William Curry,Belton,83.64,161.03,106.59,154.22,421.84,Single-ply,SBD,M
Boys,89.81,9,Olajuwan Taylor,Belton,86.27,149.69,104.33,163.29,417.3,Single-ply,SBD,M
Boys,89.81,10,John Fuselier,Copperas Cove,89.45,124.74,83.91,156.49,365.14,Single-ply,SBD,M
Boys,89.81,11,Josh Romero,Waco Midway,89.36,136.08,79.38,124.74,340.19,Single-ply,SBD,M
Boys,99.79,1,Jon Ladner,Waco Midway,99.79,238.14,117.93,188.24,544.31,Single-ply,SBD,M
Boys,99.79,2,Derek Henicke,College Station A&M Cons,93.26,181.44,124.74,181.44,487.61,Single-ply,SBD,M
Boys,99.79,3,Manny Harris,Copperas Cove,96.71,181.44,95.25,185.97,462.66,Single-ply,SBD,M
Boys,99.79,4,Anthony Flowers,Waco Midway,99.79,149.69,104.33,174.63,428.64,Single-ply,SBD,M
Boys,99.79,5,Nickolas Baker,Belton,98.34,136.08,90.72,154.22,381.02,Single-ply,SBD,M
Boys,99.79,6,Braden Wills,Waco Midway,90.72,136.08,90.72,142.88,369.68,Single-ply,SBD,M
Boys,109.77,1,Xavier Bryant,Temple,103.15,249.48,167.83,251.74,669.05,Single-ply,SBD,M
Boys,109.77,2,Travis Lock,Temple,108.68,215.46,131.54,229.06,576.06,Single-ply,SBD,M
Boys,109.77,3,Jaylen Waters,Copperas Cove,106.14,204.12,142.88,226.8,573.79,Single-ply,SBD,M
Boys,109.77,4,Kentrell Chandler,Temple,104.51,199.58,120.2,208.65,528.44,Single-ply,SBD,M
Boys,109.77,5,Shakana Hererra,Copperas Cove,109.5,174.63,145.15,204.12,523.9,Single-ply,SBD,M
Boys,109.77,6,Aaron Leventis,College Station A&M Cons,106.59,179.17,142.88,172.37,494.42,Single-ply,SBD,M
Boys,109.77,7,Colton Tuiasosopo,Copperas Cove,103.78,181.44,120.2,181.44,483.08,Single-ply,SBD,M
Boys,109.77,8,Gilberto Hernandez,Temple,104.14,158.76,129.27,183.7,471.74,Single-ply,SBD,M
Boys,109.77,9,Isaiah Jackson,Copperas Cove,109.04,183.7,104.33,181.44,469.47,Single-ply,SBD,M
Boys,109.77,10,Sergio Hernandez,Temple,106.87,158.76,108.86,192.78,460.4,Single-ply,SBD,M
Boys,109.77,11,Kyle Webster,Copperas Cove,104.51,167.83,127.01,161.03,455.86,Single-ply,SBD,M
Boys,109.77,12,Logo Kaleopa,Copperas Cove,102.15,142.88,88.45,147.42,378.75,Single-ply,SBD,M
Boys,109.77,13,Drew Hughlett,Waco Midway,103.87,136.08,86.18,145.15,367.41,Single-ply,SBD,M
Boys,109.77,DQ,Ryan Bevan,College Station A&M Cons,105.23,,,,,Single-ply,SBD,M
Boys,124.74,1,James Judie,Temple,119.2,242.67,136.08,249.48,628.23,Single-ply,SBD,M
Boys,124.74,2,David Lopez,Temple,115.58,235.87,154.22,210.92,601.01,Single-ply,SBD,M
Boys,124.74,3,Tanner Morgan,Temple,119.29,249.48,127.01,222.26,598.74,Single-ply,SBD,M
Boys,124.74,4,Camryn Dotson,Waco Midway,124.74,208.65,136.08,249.48,594.21,Single-ply,SBD,M
Boys,124.74+,5,Mj Morris,Waco Midway,124.87,244.94,129.27,215.46,589.67,Single-ply,SBD,M
Boys,124.74,6,O'Sha Soloman,Temple,117.12,226.8,154.22,204.12,585.13,Single-ply,SBD,M
Boys,124.74,7,Rodarious Birks,Belton,124.38,233.6,133.81,183.7,551.11,Single-ply,SBD,M
Boys,124.74,8,Jimmy Ayala,Waco Midway,116.12,204.12,140.61,197.31,542.04,Single-ply,SBD,M
Boys,124.74,9,Braden Martinez,Belton,120.11,217.72,113.4,208.65,539.77,Single-ply,SBD,M
Boys,124.74,10,Jose Lopez,Temple,121.56,197.31,147.42,181.44,526.17,Single-ply,SBD,M
Boys,124.74,11,Phillip Lynch,Temple,119.84,204.12,113.4,181.44,498.95,Single-ply,SBD,M
Boys,124.74,12,Blake Wilkinson,College Station A&M Cons,120.2,181.44,117.93,183.7,483.08,Single-ply,SBD,M
Boys,124.74,13,Remington Weis,Copperas Cove,116.85,188.24,102.06,172.37,462.66,Single-ply,SBD,M
Boys,124.74,14,Drew Thigpen,Belton,118.3,149.69,108.86,163.29,421.84,Single-ply,SBD,M
Boys,124.74,DQ,Phil Aumua,Copperas Cove,117.21,263.08,,,,Single-ply,SBD,M
Boys,124.74+,1,Devontae Moore,Temple,151.5,324.32,213.19,249.48,786.98,Single-ply,SBD,M
Boys,124.74+,2,Dalton Hays,Waco Midway,141.07,238.14,129.27,170.1,537.51,Single-ply,SBD,M
Boys,124.74+,3,Devon Meshack,Temple,136.17,204.12,127.01,195.04,526.17,Single-ply,SBD,M
Boys,124.74+,4,Jermaine Townsend,Temple,136.08,158.76,108.86,206.38,474,Single-ply,SBD,M
Boys,124.74+,5,Mason Trevino,Belton,132.72,204.12,111.13,156.49,471.74,Single-ply,SBD,M
Boys,124.74+,6,Jp Urquidez,Copperas Cove,128,170.1,129.27,142.88,442.25,Single-ply,SBD,M
