Event,Sex,Name,Country,State,BodyweightKg,WeightClassKg,Division,Best3SquatKg,Best3BenchKg,Best3DeadliftKg,TotalKg,Equipment,Place
SBD,M,Steven Powell,,MB,89.8,90,Open,280,182.5,280,742.5,Single-ply,2
SBD,M,Dave Bolton,,ON,89.2,90,Open,240,142.5,265,647.5,Single-ply,3
SBD,M,Darren Weatherbie,,PE,89.5,90,Open,295,227.5,290,812.5,Single-ply,1
SBD,F,Treena Anthony,,AB,83.3,90,Open,165,92.5,180,437.5,Single-ply,1
SBD,F,Sarah Frankel,,ON,83.2,90,Open,152.5,75,157.5,385,Single-ply,2
SBD,F,Josee Morneau,,MB,83.4,90,Open,142.5,65,170,377.5,Single-ply,3
SBD,M,Joe Broadbent,,AB,81.4,82.5,Open,215,135,245,595,Single-ply,2
SBD,M,Jeff Becker,,ON,82.2,82.5,Open,262.5,170,270,702.5,Single-ply,1
SBD,M,Rick Marshall #1,,MB,74.3,75,Open,232.5,170,252.5,655,Single-ply,1
SBD,M,Jason Duclos,,AB,74.5,75,Open,210,135,247.5,592.5,Single-ply,4
SBD,M,Jamie Dougall,,BC,75,75,Open,207.5,140,257.5,605,Single-ply,3
SBD,M,Brandon Summers,,ON,74.5,75,Open,225,165,257.5,647.5,Single-ply,2
SBD,F,Sara Clark,,ON,69.7,75,Open,125,65,150,340,Single-ply,1
SBD,F,Monique Hartle,USA,IN,78.9,82.5,Open,145,92.5,137.5,375,Single-ply,1
SBD,F,Wendy Rodgers,,AB,61.7,67.5,Open,110,60,140,310,Single-ply,2
SBD,F,Kim Dennis,,BC,66,67.5,Open,152.5,87.5,110,350,Single-ply,1
SBD,M,Jean-Sébastien Rhéaume,,QC,66.7,67.5,Open,185,145,195,525,Single-ply,1
SBD,F,Heather Ayles,,PE,58.6,60,Open,157.5,77.5,162.5,397.5,Single-ply,1
SBD,F,Diane Richard,,SK,56.2,60,Open,117.5,50,120,287.5,Single-ply,2
SBD,F,Jenny Collins,,BC,54.8,56,Open,112.5,65,122.5,300,Single-ply,1
SBD,M,Steve Campbell,,NL,120.6,125,Open,282.5,205,280,767.5,Single-ply,2
SBD,M,Alex Mardell,,AB,119.5,125,Open,325,210,302.5,837.5,Single-ply,1
SBD,M,Mark Finochio,,ON,105.1,110,Open,285,170,250,705,Single-ply,4
SBD,M,Jimmy Häll,,AB,109.5,110,Open,317.5,200,302.5,820,Single-ply,1
SBD,M,Greg St George,,BC,108.7,110,Open,260,187.5,260,707.5,Single-ply,3
SBD,M,Danny King,,NL,107.1,110,Open,275,210,245,730,Single-ply,2
SBD,M,Steve Magistrale,,ON,99.4,100,Open,250,175,272.5,697.5,Single-ply,3
SBD,M,Stephan McKenzie,,ON,98.9,100,Open,295,200,315,810,Single-ply,1
SBD,M,Gibby Chasse,,BC,98.9,100,Open,225,200,252.5,677.5,Single-ply,4
SBD,M,Eric Gagnon,,ON,99.4,100,Open,290,175,255,720,Single-ply,2
SBD,M,Scot Seguin,,ON,89.5,90,Masters 2,240,155,260,655,Single-ply,2
SBD,M,Ron Delaney,,NS,88.3,90,Masters 2,222.5,157.5,282.5,662.5,Single-ply,1
SBD,M,Louis Lévesque,,QC,80.4,82.5,Masters 2,192.5,125,202.5,520,Single-ply,5
SBD,M,Laurie Greenidge,,ON,81.9,82.5,Masters 2,210,135,210,555,Single-ply,2
SBD,M,Ken Fougere,,AB,81.8,82.5,Masters 2,255,150,227.5,632.5,Single-ply,1
SBD,M,John Bourgoin,,ON,75.8,82.5,Masters 2,222.5,112.5,190,525,Single-ply,4
SBD,M,Brian Desjarlais,,SK,82.5,82.5,Masters 2,177.5,177.5,190,545,Single-ply,3
SBD,M,Stan Goss,,ON,73.9,75,Masters 2,167.5,100,202.5,470,Single-ply,3
SBD,M,Glyn Moore,,ON,69.2,75,Masters 2,212.5,135,230,577.5,Single-ply,1
SBD,M,Bob Mann,,MB,74.7,75,Masters 2,180,137.5,220,537.5,Single-ply,2
SBD,M,Richard Nowazek,,BC,130.3,125+,Masters 2,257.5,150,165,572.5,Single-ply,1
SBD,M,Dennis Chasse,,QC,124,125,Masters 2,240,185,272.5,697.5,Single-ply,1
SBD,M,Hal Mulholland,,NB,107.3,110,Masters 2,227.5,165,265,657.5,Single-ply,2
SBD,M,Grant Armour,,BC,107.6,110,Masters 2,235,172.5,262.5,670,Single-ply,1
SBD,M,Darwin Eckstrom,,AB,106.9,110,Masters 2,215,180,212.5,607.5,Single-ply,3
SBD,M,Norman Lambert,,AB,97.4,100,Masters 2,195,157.5,250,602.5,Single-ply,1
SBD,M,Tony Tomra,,BC,99.2,100,Masters 1,265,180,242.5,687.5,Single-ply,2
SBD,M,Tim Jones,,ON,86.5,90,Masters 1,207.5,150,235,592.5,Single-ply,5
SBD,M,Jerry Marentette,,ON,85.6,90,Masters 1,245,162.5,262.5,670,Single-ply,3
SBD,M,Byron Monstur,,NL,89.8,90,Masters 1,230,140,247.5,617.5,Single-ply,4
SBD,M,Bruce Markham,,MB,86.8,90,Masters 1,272.5,175,275,722.5,Single-ply,1
SBD,M,Jeff Becker,,ON,82.2,82.5,Masters 1,260,177.5,285,722.5,Single-ply,1
SBD,M,Herbert Greenidge,,ON,82.1,82.5,Masters 1,200,170,215,585,Single-ply,3
SBD,M,Barry Simms,,ON,81.1,82.5,Masters 1,220,152.5,242.5,615,Single-ply,2
SBD,M,Rick Marshall #1,,MB,74.8,75,Masters 1,252.5,177.5,245,675,Single-ply,1
SBD,M,Bob Hindley,,BC,74.4,75,Masters 1,230,125,250,605,Single-ply,2
SBD,M,Jim Jong,,ON,58.6,60,Masters 1,182.5,137.5,207.5,527.5,Single-ply,1
SBD,M,Mike Armstrong,,AB,154.6,125+,Masters 1,250,175,242.5,667.5,Single-ply,1
SBD,M,Gordon Cosby,,ON,126.3,125+,Masters 1,210,157.5,272.5,640,Single-ply,2
SBD,M,Keith Banner,,AB,118,125,Masters 1,302.5,175,297.5,775,Single-ply,1
SBD,M,Brock Haywood,,MB,122.6,125,Masters 1,270,167.5,242.5,680,Single-ply,2
SBD,M,Tom Nicholls,,PE,109.7,110,Masters 1,325,220,345,890,Single-ply,1
SBD,M,Ron Strong,,ON,110,110,Masters 1,235,160,262.5,657.5,Single-ply,3
SBD,M,Bruce McIntyre,,ON,106,110,Masters 1,235,215,270,720,Single-ply,2
SBD,M,Paul McDonald,,NL,85.7,90,Juniors,255,150,265,670,Single-ply,1
SBD,M,Kellan Eckstrom,,AB,87,90,Juniors,205,107.5,235,547.5,Single-ply,3
SBD,M,Joel Kaechele,,AB,89,90,Juniors,242.5,130,247.5,620,Single-ply,2
SBD,M,Jared Alvey,,AB,74.6,75,Juniors,240,117.5,220,577.5,Single-ply,1
SBD,M,Dalbir Roopra,,BC,72.5,75,Juniors,180,120,205,505,Single-ply,2
SBD,M,Rick Evans,,AB,66.6,67.5,Juniors,200,107.5,215,522.5,Single-ply,1
SBD,M,Kristian Leach,,AB,65.6,67.5,Juniors,135,112.5,205,452.5,Single-ply,2
SBD,M,Dennis Ng,,MB,59.4,60,Juniors,135,100,145,380,Single-ply,1
SBD,M,Ryan Fowler,,SK,134.5,125+,Juniors,235,165,225,625,Single-ply,1
SBD,M,Tim Ekert,,ON,107,110,Juniors,200,172.5,225,597.5,Single-ply,2
SBD,M,Mike Smook,,MB,104.9,110,Juniors,200,215,180,595,Single-ply,3
SBD,M,John MacDonald #1,,PE,108.2,110,Juniors,255,195,272.5,722.5,Single-ply,1
SBD,M,Jon Heisel,,ON,92.6,100,Juniors,205,160,210,575,Single-ply,1
